
Time = 12423.00  -  Thrust = 0.51
Time = 12460.00  -  Thrust = 0.51
Time = 12495.00  -  Thrust = 2.94
Time = 12532.00  -  Thrust = 2.94
Time = 12568.00  -  Thrust = 2.94
Time = 12605.00  -  Thrust = 11.65
Time = 12642.00  -  Thrust = 11.65
Time = 12680.00  -  Thrust = 31.22
Time = 12717.00  -  Thrust = 31.22
Time = 12754.00  -  Thrust = 65.16
Time = 12792.00  -  Thrust = 65.16
Time = 12829.00  -  Thrust = 65.16
Time = 12867.00  -  Thrust = 101.18
Time = 12905.00  -  Thrust = 101.18
Time = 12944.00  -  Thrust = 136.96
Time = 12982.00  -  Thrust = 136.96
Time = 13021.00  -  Thrust = 171.04
Time = 13060.00  -  Thrust = 171.04
Time = 13099.00  -  Thrust = 201.12
Time = 13136.00  -  Thrust = 201.12
Time = 13174.00  -  Thrust = 201.12
Time = 13213.00  -  Thrust = 226.90
Time = 13251.00  -  Thrust = 226.90
Time = 13290.00  -  Thrust = 249.07
Time = 13329.00  -  Thrust = 249.07
Time = 13368.00  -  Thrust = 269.85
Time = 13406.00  -  Thrust = 269.85
Time = 13445.00  -  Thrust = 290.35
Time = 13483.00  -  Thrust = 290.35
Time = 13520.00  -  Thrust = 290.35
Time = 13559.00  -  Thrust = 310.95
Time = 13598.00  -  Thrust = 310.95
Time = 13637.00  -  Thrust = 330.35
Time = 13675.00  -  Thrust = 330.35
Time = 13714.00  -  Thrust = 347.43
Time = 13752.00  -  Thrust = 347.43
Time = 13791.00  -  Thrust = 347.43
Time = 13830.00  -  Thrust = 361.62
Time = 13868.00  -  Thrust = 361.62
Time = 13906.00  -  Thrust = 372.27
Time = 13944.00  -  Thrust = 372.27
Time = 13983.00  -  Thrust = 375.96
Time = 14021.00  -  Thrust = 375.96
Time = 14060.00  -  Thrust = 375.96
Time = 14098.00  -  Thrust = 375.96
Time = 14137.00  -  Thrust = 375.96
Time = 14176.00  -  Thrust = 368.72
Time = 14214.00  -  Thrust = 368.72
Time = 14253.00  -  Thrust = 347.91
Time = 14290.00  -  Thrust = 347.91
Time = 14329.00  -  Thrust = 325.51
Time = 14367.00  -  Thrust = 325.51
Time = 14406.00  -  Thrust = 303.38
Time = 14444.00  -  Thrust = 303.38
Time = 14483.00  -  Thrust = 303.38
Time = 14522.00  -  Thrust = 283.83
Time = 14560.00  -  Thrust = 283.83
Time = 14599.00  -  Thrust = 269.05
Time = 14637.00  -  Thrust = 269.05
Time = 14675.00  -  Thrust = 257.78
Time = 14713.00  -  Thrust = 257.78
Time = 14752.00  -  Thrust = 248.87
Time = 14791.00  -  Thrust = 248.87
Time = 14829.00  -  Thrust = 248.87
Time = 14868.00  -  Thrust = 240.14
Time = 14906.00  -  Thrust = 240.14
Time = 14945.00  -  Thrust = 231.45
Time = 14983.00  -  Thrust = 231.45
Time = 15022.00  -  Thrust = 223.35
Time = 15060.00  -  Thrust = 223.35
Time = 15099.00  -  Thrust = 217.66
Time = 15137.00  -  Thrust = 217.66
Time = 15175.00  -  Thrust = 217.66
Time = 15214.00  -  Thrust = 214.84
Time = 15252.00  -  Thrust = 214.84
Time = 15291.00  -  Thrust = 214.84
Time = 15330.00  -  Thrust = 214.84
Time = 15369.00  -  Thrust = 215.54
Time = 15407.00  -  Thrust = 215.54
Time = 15446.00  -  Thrust = 219.72
Time = 15483.00  -  Thrust = 219.72
Time = 15522.00  -  Thrust = 219.72
Time = 15561.00  -  Thrust = 223.51
Time = 15599.00  -  Thrust = 223.51
Time = 15638.00  -  Thrust = 227.45
Time = 15676.00  -  Thrust = 227.45
Time = 15715.00  -  Thrust = 231.08
Time = 15753.00  -  Thrust = 231.08
Time = 15792.00  -  Thrust = 231.08
Time = 15831.00  -  Thrust = 233.95
Time = 15868.00  -  Thrust = 233.95
Time = 15907.00  -  Thrust = 236.81
Time = 15945.00  -  Thrust = 236.81
Time = 15984.00  -  Thrust = 240.70
Time = 16022.00  -  Thrust = 240.70
Time = 16061.00  -  Thrust = 243.85
Time = 16099.00  -  Thrust = 243.85
Time = 16138.00  -  Thrust = 243.85
Time = 16177.00  -  Thrust = 247.88
Time = 16215.00  -  Thrust = 247.88
Time = 16253.00  -  Thrust = 252.57
Time = 16291.00  -  Thrust = 252.57
Time = 16330.00  -  Thrust = 256.93
Time = 16368.00  -  Thrust = 256.93
Time = 16407.00  -  Thrust = 261.25
Time = 16445.00  -  Thrust = 261.25
Time = 16484.00  -  Thrust = 261.25
Time = 16523.00  -  Thrust = 264.55
Time = 16561.00  -  Thrust = 264.55
Time = 16600.00  -  Thrust = 266.38
Time = 16637.00  -  Thrust = 266.38
Time = 16676.00  -  Thrust = 267.59
Time = 16714.00  -  Thrust = 267.59
Time = 16753.00  -  Thrust = 268.34
Time = 16792.00  -  Thrust = 268.34
Time = 16830.00  -  Thrust = 268.34
Time = 16869.00  -  Thrust = 270.15
Time = 16907.00  -  Thrust = 270.15
Time = 16946.00  -  Thrust = 271.38
Time = 16985.00  -  Thrust = 271.38
Time = 17024.00  -  Thrust = 273.18
Time = 17061.00  -  Thrust = 273.18
Time = 17100.00  -  Thrust = 275.59
Time = 17138.00  -  Thrust = 275.59
Time = 17176.00  -  Thrust = 275.59
Time = 17215.00  -  Thrust = 277.79
Time = 17254.00  -  Thrust = 277.79
Time = 17293.00  -  Thrust = 279.16
Time = 17331.00  -  Thrust = 279.16
Time = 17370.00  -  Thrust = 278.94
Time = 17408.00  -  Thrust = 278.94
Time = 17446.00  -  Thrust = 277.94
Time = 17484.00  -  Thrust = 277.94
Time = 17523.00  -  Thrust = 277.94
Time = 17562.00  -  Thrust = 274.41
Time = 17600.00  -  Thrust = 274.41
Time = 17639.00  -  Thrust = 268.44
Time = 17677.00  -  Thrust = 268.44
Time = 17716.00  -  Thrust = 262.35
Time = 17754.00  -  Thrust = 262.35
Time = 17793.00  -  Thrust = 262.35
Time = 17831.00  -  Thrust = 257.34
Time = 17869.00  -  Thrust = 257.34
Time = 17908.00  -  Thrust = 254.23
Time = 17946.00  -  Thrust = 254.23
Time = 17985.00  -  Thrust = 253.03
Time = 18023.00  -  Thrust = 253.03
Time = 18062.00  -  Thrust = 252.62
Time = 18100.00  -  Thrust = 252.62
Time = 18139.00  -  Thrust = 252.62
Time = 18178.00  -  Thrust = 251.84
Time = 18215.00  -  Thrust = 251.84
Time = 18254.00  -  Thrust = 249.86
Time = 18292.00  -  Thrust = 249.86
Time = 18331.00  -  Thrust = 246.69
Time = 18369.00  -  Thrust = 246.69
Time = 18408.00  -  Thrust = 240.82
Time = 18446.00  -  Thrust = 240.82
Time = 18485.00  -  Thrust = 240.82
Time = 18524.00  -  Thrust = 231.27
Time = 18562.00  -  Thrust = 231.27
Time = 18600.00  -  Thrust = 218.69
Time = 18638.00  -  Thrust = 218.69
Time = 18677.00  -  Thrust = 203.73
Time = 18716.00  -  Thrust = 203.73
Time = 18755.00  -  Thrust = 187.45
Time = 18793.00  -  Thrust = 187.45
Time = 18831.00  -  Thrust = 187.45
Time = 18870.00  -  Thrust = 171.68
Time = 18908.00  -  Thrust = 171.68
Time = 18947.00  -  Thrust = 155.87
Time = 18985.00  -  Thrust = 155.87
Time = 19024.00  -  Thrust = 140.82
Time = 19062.00  -  Thrust = 140.82
Time = 19101.00  -  Thrust = 126.37
Time = 19139.00  -  Thrust = 126.37
Time = 19177.00  -  Thrust = 126.37
Time = 19216.00  -  Thrust = 112.18
Time = 19255.00  -  Thrust = 112.18
Time = 19294.00  -  Thrust = 97.69
Time = 19331.00  -  Thrust = 97.69
Time = 19368.00  -  Thrust = 82.25
Time = 19405.00  -  Thrust = 82.25
Time = 19442.00  -  Thrust = 82.25
Time = 19480.00  -  Thrust = 66.48
Time = 19518.00  -  Thrust = 66.48
Time = 19556.00  -  Thrust = 50.06
Time = 19593.00  -  Thrust = 50.06
Time = 19631.00  -  Thrust = 34.06
Time = 19667.00  -  Thrust = 34.06
Time = 19704.00  -  Thrust = 34.06
Time = 19742.00  -  Thrust = 19.26
Time = 19780.00  -  Thrust = 19.26
Time = 19817.00  -  Thrust = 6.56
Time = 19854.00  -  Thrust = 6.56