SOL 101
CEND
TITLE = FEM model of a blade
ECHO = NONE
RESVEC = NO
BEGIN BULK
PARAM    POST    0
PARAM   PRTMAXIM YES
$ Elements
CQUAD4   1       1       1       2       13      12      0.      0.
CQUAD4   2       1       2       3       14      13      0.      0.
CQUAD4   3       1       3       4       15      14      0.      0.
CQUAD4   4       1       4       5       16      15      0.      0.
CQUAD4   5       1       5       6       17      16      0.      0.
CQUAD4   6       1       12      13      19      18      0.      0.
CQUAD4   7       1       13      14      20      19      0.      0.
CQUAD4   8       1       14      15      21      20      0.      0.
CQUAD4   9       1       15      16      22      21      0.      0.
CQUAD4   10      1       16      17      23      22      0.      0.
CQUAD4   11      1       18      19      25      24      0.      0.
CQUAD4   12      1       19      20      26      25      0.      0.
CQUAD4   13      1       20      21      27      26      0.      0.
CQUAD4   14      1       21      22      28      27      0.      0.
CQUAD4   15      1       22      23      29      28      0.      0.
CQUAD4   16      1       24      25      31      30      0.      0.
CQUAD4   17      1       25      26      32      31      0.      0.
CQUAD4   18      1       26      27      33      32      0.      0.
CQUAD4   19      1       27      28      34      33      0.      0.
CQUAD4   20      1       28      29      35      34      0.      0.
CQUAD4   21      1       30      31      37      36      0.      0.
CQUAD4   22      1       31      32      38      37      0.      0.
CQUAD4   23      1       32      33      39      38      0.      0.
CQUAD4   24      1       33      34      40      39      0.      0.
CQUAD4   25      1       34      35      41      40      0.      0.
CQUAD4   26      1       36      37      43      42      0.      0.
CQUAD4   27      1       37      38      44      43      0.      0.
CQUAD4   28      1       38      39      45      44      0.      0.
CQUAD4   29      1       39      40      46      45      0.      0.
CQUAD4   30      1       40      41      47      46      0.      0.
CQUAD4   31      1       42      43      49      48      0.      0.
CQUAD4   32      1       43      44      50      49      0.      0.
CQUAD4   33      1       44      45      51      50      0.      0.
CQUAD4   34      1       45      46      52      51      0.      0.
CQUAD4   35      1       46      47      53      52      0.      0.
CQUAD4   36      1       48      49      55      54      0.      0.
CQUAD4   37      1       49      50      56      55      0.      0.
CQUAD4   38      1       50      51      57      56      0.      0.
CQUAD4   39      1       51      52      58      57      0.      0.
CQUAD4   40      1       52      53      59      58      0.      0.
CQUAD4   41      1       54      55      61      60      0.      0.
CQUAD4   42      1       55      56      62      61      0.      0.
CQUAD4   43      1       56      57      63      62      0.      0.
CQUAD4   44      1       57      58      64      63      0.      0.
CQUAD4   45      1       58      59      65      64      0.      0.
CQUAD4   46      1       60      61      67      66      0.      0.
CQUAD4   47      1       61      62      68      67      0.      0.
CQUAD4   48      1       62      63      69      68      0.      0.
CQUAD4   49      1       63      64      70      69      0.      0.
CQUAD4   50      1       64      65      71      70      0.      0.
CQUAD4   51      1       66      67      73      72      0.      0.
CQUAD4   52      1       67      68      74      73      0.      0.
CQUAD4   53      1       68      69      75      74      0.      0.
CQUAD4   54      1       69      70      76      75      0.      0.
CQUAD4   55      1       70      71      77      76      0.      0.
CQUAD4   56      1       72      73      79      78      0.      0.
CQUAD4   57      1       73      74      80      79      0.      0.
CQUAD4   58      1       74      75      81      80      0.      0.
CQUAD4   59      1       75      76      82      81      0.      0.
CQUAD4   60      1       76      77      83      82      0.      0.
CQUAD4   61      1       78      79      85      84      0.      0.
CQUAD4   62      1       79      80      86      85      0.      0.
CQUAD4   63      1       80      81      87      86      0.      0.
CQUAD4   64      1       81      82      88      87      0.      0.
CQUAD4   65      1       82      83      89      88      0.      0.
CQUAD4   66      1       84      85      91      90      0.      0.
CQUAD4   67      1       85      86      92      91      0.      0.
CQUAD4   68      1       86      87      93      92      0.      0.
CQUAD4   69      1       87      88      94      93      0.      0.
CQUAD4   70      1       88      89      95      94      0.      0.
CQUAD4   71      1       90      91      97      96      0.      0.
CQUAD4   72      1       91      92      98      97      0.      0.
CQUAD4   73      1       92      93      99      98      0.      0.
CQUAD4   74      1       93      94      100     99      0.      0.
CQUAD4   75      1       94      95      101     100     0.      0.
CQUAD4   76      1       96      97      103     102     0.      0.
CQUAD4   77      1       97      98      104     103     0.      0.
CQUAD4   78      1       98      99      105     104     0.      0.
CQUAD4   79      1       99      100     106     105     0.      0.
CQUAD4   80      1       100     101     107     106     0.      0.
CQUAD4   81      1       102     103     109     108     0.      0.
CQUAD4   82      1       103     104     110     109     0.      0.
CQUAD4   83      1       104     105     111     110     0.      0.
CQUAD4   84      1       105     106     112     111     0.      0.
CQUAD4   85      1       106     107     113     112     0.      0.
CQUAD4   86      1       108     109     115     114     0.      0.
CQUAD4   87      1       109     110     116     115     0.      0.
CQUAD4   88      1       110     111     117     116     0.      0.
CQUAD4   89      1       111     112     118     117     0.      0.
CQUAD4   90      1       112     113     119     118     0.      0.
CQUAD4   91      1       114     115     121     120     0.      0.
CQUAD4   92      1       115     116     122     121     0.      0.
CQUAD4   93      1       116     117     123     122     0.      0.
CQUAD4   94      1       117     118     124     123     0.      0.
CQUAD4   95      1       118     119     125     124     0.      0.
CQUAD4   96      1       120     121     127     126     0.      0.
CQUAD4   97      1       121     122     128     127     0.      0.
CQUAD4   98      1       122     123     129     128     0.      0.
CQUAD4   99      1       123     124     130     129     0.      0.
CQUAD4   100     1       124     125     131     130     0.      0.
CQUAD4   101     1       6       7       132     17      0.      0.
CQUAD4   102     1       7       8       133     132     0.      0.
CQUAD4   103     1       8       9       134     133     0.      0.
CQUAD4   104     1       9       10      135     134     0.      0.
CQUAD4   105     1       10      11      136     135     0.      0.
CQUAD4   106     1       17      132     137     23      0.      0.
CQUAD4   107     1       132     133     138     137     0.      0.
CQUAD4   108     1       133     134     139     138     0.      0.
CQUAD4   109     1       134     135     140     139     0.      0.
CQUAD4   110     1       135     136     141     140     0.      0.
CQUAD4   111     1       23      137     142     29      0.      0.
CQUAD4   112     1       137     138     143     142     0.      0.
CQUAD4   113     1       138     139     144     143     0.      0.
CQUAD4   114     1       139     140     145     144     0.      0.
CQUAD4   115     1       140     141     146     145     0.      0.
CQUAD4   116     1       29      142     147     35      0.      0.
CQUAD4   117     1       142     143     148     147     0.      0.
CQUAD4   118     1       143     144     149     148     0.      0.
CQUAD4   119     1       144     145     150     149     0.      0.
CQUAD4   120     1       145     146     151     150     0.      0.
CQUAD4   121     1       35      147     152     41      0.      0.
CQUAD4   122     1       147     148     153     152     0.      0.
CQUAD4   123     1       148     149     154     153     0.      0.
CQUAD4   124     1       149     150     155     154     0.      0.
CQUAD4   125     1       150     151     156     155     0.      0.
CQUAD4   126     1       41      152     157     47      0.      0.
CQUAD4   127     1       152     153     158     157     0.      0.
CQUAD4   128     1       153     154     159     158     0.      0.
CQUAD4   129     1       154     155     160     159     0.      0.
CQUAD4   130     1       155     156     161     160     0.      0.
CQUAD4   131     1       47      157     162     53      0.      0.
CQUAD4   132     1       157     158     163     162     0.      0.
CQUAD4   133     1       158     159     164     163     0.      0.
CQUAD4   134     1       159     160     165     164     0.      0.
CQUAD4   135     1       160     161     166     165     0.      0.
CQUAD4   136     1       53      162     167     59      0.      0.
CQUAD4   137     1       162     163     168     167     0.      0.
CQUAD4   138     1       163     164     169     168     0.      0.
CQUAD4   139     1       164     165     170     169     0.      0.
CQUAD4   140     1       165     166     171     170     0.      0.
CQUAD4   141     1       59      167     172     65      0.      0.
CQUAD4   142     1       167     168     173     172     0.      0.
CQUAD4   143     1       168     169     174     173     0.      0.
CQUAD4   144     1       169     170     175     174     0.      0.
CQUAD4   145     1       170     171     176     175     0.      0.
CQUAD4   146     1       65      172     177     71      0.      0.
CQUAD4   147     1       172     173     178     177     0.      0.
CQUAD4   148     1       173     174     179     178     0.      0.
CQUAD4   149     1       174     175     180     179     0.      0.
CQUAD4   150     1       175     176     181     180     0.      0.
CQUAD4   151     1       71      177     182     77      0.      0.
CQUAD4   152     1       177     178     183     182     0.      0.
CQUAD4   153     1       178     179     184     183     0.      0.
CQUAD4   154     1       179     180     185     184     0.      0.
CQUAD4   155     1       180     181     186     185     0.      0.
CQUAD4   156     1       77      182     187     83      0.      0.
CQUAD4   157     1       182     183     188     187     0.      0.
CQUAD4   158     1       183     184     189     188     0.      0.
CQUAD4   159     1       184     185     190     189     0.      0.
CQUAD4   160     1       185     186     191     190     0.      0.
CQUAD4   161     1       83      187     192     89      0.      0.
CQUAD4   162     1       187     188     193     192     0.      0.
CQUAD4   163     1       188     189     194     193     0.      0.
CQUAD4   164     1       189     190     195     194     0.      0.
CQUAD4   165     1       190     191     196     195     0.      0.
CQUAD4   166     1       89      192     197     95      0.      0.
CQUAD4   167     1       192     193     198     197     0.      0.
CQUAD4   168     1       193     194     199     198     0.      0.
CQUAD4   169     1       194     195     200     199     0.      0.
CQUAD4   170     1       195     196     201     200     0.      0.
CQUAD4   171     1       95      197     202     101     0.      0.
CQUAD4   172     1       197     198     203     202     0.      0.
CQUAD4   173     1       198     199     204     203     0.      0.
CQUAD4   174     1       199     200     205     204     0.      0.
CQUAD4   175     1       200     201     206     205     0.      0.
CQUAD4   176     1       101     202     207     107     0.      0.
CQUAD4   177     1       202     203     208     207     0.      0.
CQUAD4   178     1       203     204     209     208     0.      0.
CQUAD4   179     1       204     205     210     209     0.      0.
CQUAD4   180     1       205     206     211     210     0.      0.
CQUAD4   181     1       107     207     212     113     0.      0.
CQUAD4   182     1       207     208     213     212     0.      0.
CQUAD4   183     1       208     209     214     213     0.      0.
CQUAD4   184     1       209     210     215     214     0.      0.
CQUAD4   185     1       210     211     216     215     0.      0.
CQUAD4   186     1       113     212     217     119     0.      0.
CQUAD4   187     1       212     213     218     217     0.      0.
CQUAD4   188     1       213     214     219     218     0.      0.
CQUAD4   189     1       214     215     220     219     0.      0.
CQUAD4   190     1       215     216     221     220     0.      0.
CQUAD4   191     1       119     217     222     125     0.      0.
CQUAD4   192     1       217     218     223     222     0.      0.
CQUAD4   193     1       218     219     224     223     0.      0.
CQUAD4   194     1       219     220     225     224     0.      0.
CQUAD4   195     1       220     221     226     225     0.      0.
CQUAD4   196     1       125     222     227     131     0.      0.
CQUAD4   197     1       222     223     228     227     0.      0.
CQUAD4   198     1       223     224     229     228     0.      0.
CQUAD4   199     1       224     225     230     229     0.      0.
CQUAD4   200     1       225     226     231     230     0.      0.
$ Nodes 
GRID     1              .04      0.     .04
GRID     2              .0398637-.001035.036
GRID     3              .0397274-.00207 .032
GRID     4              .0395911-.003105.028
GRID     5              .0394548-.004141.024
GRID     6              .0393185-.005176.02
GRID     7              .0391822-.006211.016
GRID     8              .0390459-.007246.012
GRID     9              .0389096-.008282.008
GRID     10             .0387733-.009317.004
GRID     11             .038637 -.010352 0.
GRID     12             .0472635-.002288.0434506
GRID     13             .0471686-.003008.039381
GRID     14             .0470737-.003729.0353114
GRID     15             .0469788-.00445 .0312418
GRID     16             .0468839-.005171.0271722
GRID     17             .0467889-.005892.0231026
GRID     18             .0544922-.00484 .046787
GRID     19             .0544393-.005242.0426729
GRID     20             .0543863-.005644.0385588
GRID     21             .0543334-.006046.0344447
GRID     22             .0542804-.006448.0303306
GRID     23             .0542275-.006851.0262165
GRID     24             .0616874-.007647.0499886
GRID     25             .0616767-.007728.0458553
GRID     26             .0616661-.007809.0417221
GRID     27             .0616554-.00789 .0375888
GRID     28             .0616448-.00797 .0334556
GRID     29             .0616341-.008051.0293223
GRID     30             .0688505-.010697.0530356
GRID     31             .0688822-.010457.0489087
GRID     32             .0689139-.010216.0447818
GRID     33             .0689456-.009975.0406549
GRID     34             .0689773-.009734.036528
GRID     35             .069009 -.009493.0324011
GRID     36             .0759832-.013979.0559093
GRID     37             .0760571-.013417.0518142
GRID     38             .076131 -.012856.0477191
GRID     39             .0762049-.012295.043624
GRID     40             .0762787-.011734.0395289
GRID     41             .0763526-.011173.0354337
GRID     42             .0830875-.017476.058592
GRID     43             .0832031-.016598.0545539
GRID     44             .0833187-.01572 .0505158
GRID     45             .0834343-.014842.0464777
GRID     46             .0835498-.013964.0424397
GRID     47             .0836654-.013086.0384016
GRID     48             .0901653-.021175.0610671
GRID     49             .0903219-.019985.0571109
GRID     50             .0904785-.018796.0531548
GRID     51             .0906351-.017606.0491986
GRID     52             .0907916-.016417.0452425
GRID     53             .0909482-.015228.0412863
GRID     54             .0972189-.025057.0633194
GRID     55             .0974155-.023564.0594695
GRID     56             .0976121-.02207 .0556197
GRID     57             .0978087-.020577.0517698
GRID     58             .0980053-.019083.04792
GRID     59             .098202 -.01759 .0440702
GRID     60             .104251 -.029106.0653349
GRID     61             .104486 -.027318.0616151
GRID     62             .104721 -.025529.0578953
GRID     63             .104957 -.023741.0541755
GRID     64             .105192 -.021953.0504557
GRID     65             .105428 -.020164.046736
GRID     66             .111263 -.033302.0671012
GRID     67             .111536 -.03123 .0635345
GRID     68             .111808 -.029158.0599677
GRID     69             .112081 -.027086.0564009
GRID     70             .112354 -.025013.0528341
GRID     71             .112627 -.022941.0492673
GRID     72             .118258 -.037626.0686076
GRID     73             .118567 -.035283.0652158
GRID     74             .118875 -.032939.0618239
GRID     75             .119184 -.030596.0584321
GRID     76             .119492 -.028253.0550403
GRID     77             .119801 -.02591 .0516485
GRID     78             .12524  -.042056.0698446
GRID     79             .125582 -.039456.0666486
GRID     80             .125924 -.036857.0634527
GRID     81             .126267 -.034257.0602568
GRID     82             .126609 -.031657.0570609
GRID     83             .126951 -.029057.053865
GRID     84             .13221  -.046572.0708046
GRID     85             .132584 -.043732.0678243
GRID     86             .132958 -.040892.064844
GRID     87             .133332 -.038051.0618636
GRID     88             .133706 -.035211.0588833
GRID     89             .13408  -.03237 .055903
GRID     90             .139172 -.051152.0714818
GRID     91             .139575 -.048089.0687354
GRID     92             .139978 -.045025.0659891
GRID     93             .140382 -.041962.0632427
GRID     94             .140785 -.038898.0604963
GRID     95             .141188 -.035835.05775
GRID     96             .146128 -.055774.0718719
GRID     97             .146558 -.052506.0693764
GRID     98             .146988 -.049238.066881
GRID     99             .147419 -.045971.0643855
GRID     100            .147849 -.042703.0618901
GRID     101            .148279 -.039435.0593946
GRID     102            .153082 -.060414.0719725
GRID     103            .153536 -.056963.0697434
GRID     104            .153991 -.053511.0675142
GRID     105            .154445 -.050059.065285
GRID     106            .1549   -.046607.0630559
GRID     107            .155354 -.043156.0608267
GRID     108            .160036 -.065051.0717831
GRID     109            .160512 -.061437.069834
GRID     110            .160988 -.057822.0678848
GRID     111            .161464 -.054208.0659357
GRID     112            .161939 -.050593.0639866
GRID     113            .162415 -.046979.0620374
GRID     114            .166994 -.069663.0713048
GRID     115            .167488 -.065908.0696477
GRID     116            .167982 -.062153.0679906
GRID     117            .168477 -.058398.0663335
GRID     118            .168971 -.054643.0646764
GRID     119            .169465 -.050888.0630193
GRID     120            .173958 -.074225.0705405
GRID     121            .174467 -.070353.0691857
GRID     122            .174977 -.066481.0678308
GRID     123            .175487 -.062608.066476
GRID     124            .175997 -.058736.0651212
GRID     125            .176507 -.054864.0637664
GRID     126            .180931 -.078717.069495
GRID     127            .181453 -.074752.0684507
GRID     128            .181975 -.070786.0674065
GRID     129            .182497 -.06682 .0663623
GRID     130            .183019 -.062854.0653181
GRID     131            .183542 -.058889.0642739
GRID     132            .046694 -.006613.019033
GRID     133            .0465991-.007334.0149634
GRID     134            .0465042-.008055.0108938
GRID     135            .0464093-.008776.0068242
GRID     136            .0463144-.009497.0027546
GRID     137            .0541745-.007253.0221024
GRID     138            .0541216-.007655.0179883
GRID     139            .0540686-.008057.0138742
GRID     140            .0540157-.008459.0097601
GRID     141            .0539628-.008861.005646
GRID     142            .0616235-.008132.0251891
GRID     143            .0616128-.008213.0210559
GRID     144            .0616022-.008294.0169226
GRID     145            .0615915-.008375.0127894
GRID     146            .0615809-.008456.0086561
GRID     147            .0690408-.009252.0282742
GRID     148            .0690725-.009011.0241473
GRID     149            .0691042-.00877 .0200204
GRID     150            .0691359-.008529.0158935
GRID     151            .0691676-.008289.0117666
GRID     152            .0764265-.010612.0313386
GRID     153            .0765004-.01005 .0272435
GRID     154            .0765743-.009489.0231484
GRID     155            .0766481-.008928.0190533
GRID     156            .076722 -.008367.0149581
GRID     157            .083781 -.012208.0343635
GRID     158            .0838966-.01133 .0303254
GRID     159            .0840122-.010452.0262873
GRID     160            .0841278-.009574.0222492
GRID     161            .0842434-.008696.0182111
GRID     162            .0911048-.014038.0373301
GRID     163            .0912614-.012849.033374
GRID     164            .091418 -.011659.0294178
GRID     165            .0915746-.01047 .0254617
GRID     166            .0917312-.009281.0215055
GRID     167            .0983986-.016096.0402203
GRID     168            .0985952-.014603.0363705
GRID     169            .0987918-.013109.0325206
GRID     170            .0989884-.011616.0286708
GRID     171            .099185 -.010122.024821
GRID     172            .105663 -.018376.0430162
GRID     173            .105899 -.016588.0392964
GRID     174            .106134 -.014799.0355766
GRID     175            .10637  -.013011.0318568
GRID     176            .106605 -.011223.028137
GRID     177            .1129   -.020869.0457005
GRID     178            .113173 -.018797.0421337
GRID     179            .113445 -.016725.0385669
GRID     180            .113718 -.014653.0350001
GRID     181            .113991 -.01258 .0314333
GRID     182            .120109 -.023566.0482567
GRID     183            .120418 -.021223.0448649
GRID     184            .120726 -.01888 .0414731
GRID     185            .121035 -.016537.0380812
GRID     186            .121343 -.014193.0346894
GRID     187            .127293 -.026457.050669
GRID     188            .127636 -.023857.0474731
GRID     189            .127978 -.021257.0442772
GRID     190            .12832  -.018658.0410813
GRID     191            .128663 -.016058.0378853
GRID     192            .134454 -.02953 .0529226
GRID     193            .134828 -.026689.0499423
GRID     194            .135202 -.023849.046962
GRID     195            .135575 -.021008.0439816
GRID     196            .135949 -.018168.0410013
GRID     197            .141592 -.032771.0550036
GRID     198            .141995 -.029708.0522573
GRID     199            .142398 -.026644.0495109
GRID     200            .142802 -.023581.0467645
GRID     201            .143205 -.020517.0440182
GRID     202            .148709 -.036167.0568991
GRID     203            .149139 -.0329  .0544037
GRID     204            .14957  -.029632.0519082
GRID     205            .15     -.026364.0494128
GRID     206            .15043  -.023097.0469173
GRID     207            .155808 -.039704.0585975
GRID     208            .156263 -.036252.0563683
GRID     209            .156717 -.0328  .0541392
GRID     210            .157172 -.029348.05191
GRID     211            .157626 -.025897.0496808
GRID     212            .162891 -.043364.0600883
GRID     213            .163367 -.03975 .0581391
GRID     214            .163843 -.036135.05619
GRID     215            .164319 -.032521.0542409
GRID     216            .164795 -.028906.0522917
GRID     217            .16996  -.047133.0613622
GRID     218            .170454 -.043378.0597051
GRID     219            .170948 -.039623.0580481
GRID     220            .171443 -.035868.056391
GRID     221            .171937 -.032113.0547339
GRID     222            .177016 -.050991.0624115
GRID     223            .177526 -.047119.0610567
GRID     224            .178036 -.043247.0597019
GRID     225            .178546 -.039374.0583471
GRID     226            .179056 -.035502.0569922
GRID     227            .184064 -.054923.0632297
GRID     228            .184586 -.050957.0621855
GRID     229            .185108 -.046991.0611413
GRID     230            .18563  -.043025.0600971
GRID     231            .186152 -.03906 .0590529
ENDDATA 93a56f8e
